0
0
0
0
0
0
0
0
0
0
0
0
0
0
0
0
0
0
0
0
0
0
0
0
0
0
0
0
0
0
0
0
0
0
0
0
0
0
0
0
0
0
0
0
0
0
0
0
0
0
0
0
0
0
0
0
0
0
0
0
0
0
0
0
0
0
0
0
0
0
0
0
0
0
0
0
0
0
0
0
0
0
0
0
0
0
0
0
0
0
0
0
0
0
0
0
0
0
0
0
0
0
0
0
0
0
0
0
0
0
0
0
0
0
0
0
0
0
0
0
0
0
0
111101
11
101010
1110110
11000001
1110110
1110110
111101
0
0
0
0
0
0
0
0
0
0
0
0
0
0
0
0
0
0
1110
10110011
11110101
11101100
11110010
11111110
11111110
11111110
11111110
11110101
11101011
1010100
0
0
0
0
0
0
0
0
0
0
0
0
0
0
0
0
10010111
11111110
11111110
11111110
11010101
11000000
10110010
10110010
10110100
11111110
11111110
11110001
101110
0
0
0
0
0
0
0
0
0
0
0
0
0
0
101011
11101011
11111110
11100010
1000000
11100
1100
0
0
10
10000000
11111100
11111111
10101101
10001
0
0
0
0
0
0
0
0
0
0
0
0
0
111000
11111110
11111101
1101011
0
0
0
0
0
0
0
10000110
11111010
11111110
1001011
0
0
0
0
0
0
0
0
0
0
0
0
0
111111
11111110
10011110
0
0
0
0
0
0
0
0
0
11011101
11111110
10011101
0
0
0
0
0
0
0
0
0
0
0
0
0
11000010
11111110
1100111
0
0
0
0
0
0
0
0
0
10010110
11111110
11010101
0
0
0
0
0
0
0
0
0
0
0
0
100010
11011100
11101111
111010
0
0
0
0
0
0
0
0
0
1010100
11111110
11010101
0
0
0
0
0
0
0
0
0
0
0
0
1111110
11111110
10101011
0
0
0
0
0
0
0
0
0
0
1010100
11111110
11010101
0
0
0
0
0
0
0
0
0
0
0
0
11010110
11101111
111100
0
0
0
0
0
0
0
0
0
0
1010100
11111110
11010101
0
0
0
0
0
0
0
0
0
0
0
0
11010110
11000111
0
0
0
0
0
0
0
0
0
0
0
1010100
11111110
11010101
0
0
0
0
0
0
0
0
0
0
0
1011
11011011
11000111
0
0
0
0
0
0
0
0
0
0
0
1010100
11111110
11010101
0
0
0
0
0
0
0
0
0
0
0
1100010
11111110
11000111
0
0
0
0
0
0
0
0
0
0
0
10100010
11111110
11010001
0
0
0
0
0
0
0
0
0
0
0
1100010
11111110
11000111
0
0
0
0
0
0
0
0
0
0
110011
11101110
11111110
1001011
0
0
0
0
0
0
0
0
0
0
0
1100010
11111110
11000111
0
0
0
0
0
0
0
0
0
110011
10100101
11111110
11000011
100
0
0
0
0
0
0
0
0
0
0
0
1000010
11110001
11000111
0
0
0
0
0
0
0
0
11
10100111
11111110
11100011
110111
0
0
0
0
0
0
0
0
0
0
0
0
0
11010110
11010101
10100
0
0
0
0
0
101110
10011000
11001010
11111110
11111110
111111
0
0
0
0
0
0
0
0
0
0
0
0
0
0
11010110
11111110
11001100
10110100
10110100
10110100
10110100
10110100
11101011
11111110
11111110
11101010
10011100
1010
0
0
0
0
0
0
0
0
0
0
0
0
0
0
1010001
11001101
11111110
11111110
11111110
11111110
11111110
11111110
11111110
11111100
11101010
1111000
0
0
0
0
0
0
0
0
0
0
0
0
0
0
0
0
0
11010
11010010
11111110
11111110
11111110
11111110
11111110
10011001
1101000
0
0
0
0
0
0
0
0
0
0
0
0
0
0
0
0
0
0
0
0
0
0
0
0
0
0
0
0
0
0
0
0
0
0
0
0
0
0
0
0
0
0
0
0
0
0
0
0
0
0
0
0
0
0
0
0
0
0
0
0
0
0
0
0
0
0
0
0
0
0
0
0
0
0
0
0
0
0
0
0
0
0
0
0
0
0
0
0
0
0
0
0
0
0
0
0
0
0
0
0
0
0
0
0
0
0
0
0
0
0
0
0
0
0
0
0
0
0
0
0
0
0
0
